<?xml version="1.0" encoding="UTF-8"?>
<!DOCTYPE suite SYSTEM "https://testng.org/testng-1.0.dtd">
<suite name="Failed suite [Suite]" verbose="0">
  <test thread-count="5" name="Test(failed)" verbose="0">
    <classes>
      <class name="tests.WeatherTest">
        <methods>
          <include name="setUP"/>
          <include name="finish"/>
          <include name="invalidAPIKeyTest"/>
        </methods>
      </class> <!-- tests.WeatherTest -->
    </classes>
  </test> <!-- Test(failed) -->
</suite> <!-- Failed suite [Suite] -->
